[
    {
        "id":"001",
        "catagory":"food",
        "title":"Food is Good",
        "content":"Food is good yes it is good is food it is yes. Im so fucking hungry right now!!!!!"
    },
    {
        "id":"002",
        "category":"sports",
        "title":"Eagles beat Bills",
        "content": "Eat that Bills Mafia!"
    }
]
